%TF.GenerationSoftware,KiCad,Pcbnew,(7.0.0)*%
%TF.CreationDate,2023-03-23T22:30:48-07:00*%
%TF.ProjectId,pmod_pcb,706d6f64-5f70-4636-922e-6b696361645f,rev?*%
%TF.SameCoordinates,Original*%
%TF.FileFunction,Paste,Top*%
%TF.FilePolarity,Positive*%
%FSLAX46Y46*%
G04 Gerber Fmt 4.6, Leading zero omitted, Abs format (unit mm)*
G04 Created by KiCad (PCBNEW (7.0.0)) date 2023-03-23 22:30:48*
%MOMM*%
%LPD*%
G01*
G04 APERTURE LIST*
G04 Aperture macros list*
%AMRoundRect*
0 Rectangle with rounded corners*
0 $1 Rounding radius*
0 $2 $3 $4 $5 $6 $7 $8 $9 X,Y pos of 4 corners*
0 Add a 4 corners polygon primitive as box body*
4,1,4,$2,$3,$4,$5,$6,$7,$8,$9,$2,$3,0*
0 Add four circle primitives for the rounded corners*
1,1,$1+$1,$2,$3*
1,1,$1+$1,$4,$5*
1,1,$1+$1,$6,$7*
1,1,$1+$1,$8,$9*
0 Add four rect primitives between the rounded corners*
20,1,$1+$1,$2,$3,$4,$5,0*
20,1,$1+$1,$4,$5,$6,$7,0*
20,1,$1+$1,$6,$7,$8,$9,0*
20,1,$1+$1,$8,$9,$2,$3,0*%
G04 Aperture macros list end*
%ADD10RoundRect,0.200000X-0.200000X-0.275000X0.200000X-0.275000X0.200000X0.275000X-0.200000X0.275000X0*%
%ADD11R,2.000000X1.800000*%
%ADD12RoundRect,0.225000X0.250000X-0.225000X0.250000X0.225000X-0.250000X0.225000X-0.250000X-0.225000X0*%
G04 APERTURE END LIST*
D10*
%TO.C,R2*%
X124397000Y-88646000D03*
X126047000Y-88646000D03*
%TD*%
%TO.C,R4*%
X128207000Y-88646000D03*
X129857000Y-88646000D03*
%TD*%
D11*
%TO.C,X1*%
X128591999Y-98790999D03*
X128591999Y-93710999D03*
X124391999Y-93710999D03*
X124391999Y-98790999D03*
%TD*%
D10*
%TO.C,R3*%
X124397000Y-90424000D03*
X126047000Y-90424000D03*
%TD*%
D12*
%TO.C,C1*%
X121158000Y-98819000D03*
X121158000Y-97269000D03*
%TD*%
D10*
%TO.C,R1*%
X124397000Y-86868000D03*
X126047000Y-86868000D03*
%TD*%
M02*
