(kicad_sch (version 20230121) (generator eeschema)

  (uuid e63e39d7-6ac0-4ffd-8aa3-1841a4541b55)

  (paper "A4")

  (lib_symbols
    (symbol "Connector_Generic:Conn_02x06_Top_Bottom" (pin_names (offset 1.016) hide) (in_bom yes) (on_board yes)
      (property "Reference" "J" (at 1.27 7.62 0)
        (effects (font (size 1.27 1.27)))
      )
      (property "Value" "Conn_02x06_Top_Bottom" (at 1.27 -10.16 0)
        (effects (font (size 1.27 1.27)))
      )
      (property "Footprint" "" (at 0 0 0)
        (effects (font (size 1.27 1.27)) hide)
      )
      (property "Datasheet" "~" (at 0 0 0)
        (effects (font (size 1.27 1.27)) hide)
      )
      (property "ki_keywords" "connector" (at 0 0 0)
        (effects (font (size 1.27 1.27)) hide)
      )
      (property "ki_description" "Generic connector, double row, 02x06, top/bottom pin numbering scheme (row 1: 1...pins_per_row, row2: pins_per_row+1 ... num_pins), script generated (kicad-library-utils/schlib/autogen/connector/)" (at 0 0 0)
        (effects (font (size 1.27 1.27)) hide)
      )
      (property "ki_fp_filters" "Connector*:*_2x??_*" (at 0 0 0)
        (effects (font (size 1.27 1.27)) hide)
      )
      (symbol "Conn_02x06_Top_Bottom_1_1"
        (rectangle (start -1.27 -7.493) (end 0 -7.747)
          (stroke (width 0.1524) (type default))
          (fill (type none))
        )
        (rectangle (start -1.27 -4.953) (end 0 -5.207)
          (stroke (width 0.1524) (type default))
          (fill (type none))
        )
        (rectangle (start -1.27 -2.413) (end 0 -2.667)
          (stroke (width 0.1524) (type default))
          (fill (type none))
        )
        (rectangle (start -1.27 0.127) (end 0 -0.127)
          (stroke (width 0.1524) (type default))
          (fill (type none))
        )
        (rectangle (start -1.27 2.667) (end 0 2.413)
          (stroke (width 0.1524) (type default))
          (fill (type none))
        )
        (rectangle (start -1.27 5.207) (end 0 4.953)
          (stroke (width 0.1524) (type default))
          (fill (type none))
        )
        (rectangle (start -1.27 6.35) (end 3.81 -8.89)
          (stroke (width 0.254) (type default))
          (fill (type background))
        )
        (rectangle (start 3.81 -7.493) (end 2.54 -7.747)
          (stroke (width 0.1524) (type default))
          (fill (type none))
        )
        (rectangle (start 3.81 -4.953) (end 2.54 -5.207)
          (stroke (width 0.1524) (type default))
          (fill (type none))
        )
        (rectangle (start 3.81 -2.413) (end 2.54 -2.667)
          (stroke (width 0.1524) (type default))
          (fill (type none))
        )
        (rectangle (start 3.81 0.127) (end 2.54 -0.127)
          (stroke (width 0.1524) (type default))
          (fill (type none))
        )
        (rectangle (start 3.81 2.667) (end 2.54 2.413)
          (stroke (width 0.1524) (type default))
          (fill (type none))
        )
        (rectangle (start 3.81 5.207) (end 2.54 4.953)
          (stroke (width 0.1524) (type default))
          (fill (type none))
        )
        (pin passive line (at -5.08 5.08 0) (length 3.81)
          (name "Pin_1" (effects (font (size 1.27 1.27))))
          (number "1" (effects (font (size 1.27 1.27))))
        )
        (pin passive line (at 7.62 -2.54 180) (length 3.81)
          (name "Pin_10" (effects (font (size 1.27 1.27))))
          (number "10" (effects (font (size 1.27 1.27))))
        )
        (pin passive line (at 7.62 -5.08 180) (length 3.81)
          (name "Pin_11" (effects (font (size 1.27 1.27))))
          (number "11" (effects (font (size 1.27 1.27))))
        )
        (pin passive line (at 7.62 -7.62 180) (length 3.81)
          (name "Pin_12" (effects (font (size 1.27 1.27))))
          (number "12" (effects (font (size 1.27 1.27))))
        )
        (pin passive line (at -5.08 2.54 0) (length 3.81)
          (name "Pin_2" (effects (font (size 1.27 1.27))))
          (number "2" (effects (font (size 1.27 1.27))))
        )
        (pin passive line (at -5.08 0 0) (length 3.81)
          (name "Pin_3" (effects (font (size 1.27 1.27))))
          (number "3" (effects (font (size 1.27 1.27))))
        )
        (pin passive line (at -5.08 -2.54 0) (length 3.81)
          (name "Pin_4" (effects (font (size 1.27 1.27))))
          (number "4" (effects (font (size 1.27 1.27))))
        )
        (pin passive line (at -5.08 -5.08 0) (length 3.81)
          (name "Pin_5" (effects (font (size 1.27 1.27))))
          (number "5" (effects (font (size 1.27 1.27))))
        )
        (pin passive line (at -5.08 -7.62 0) (length 3.81)
          (name "Pin_6" (effects (font (size 1.27 1.27))))
          (number "6" (effects (font (size 1.27 1.27))))
        )
        (pin passive line (at 7.62 5.08 180) (length 3.81)
          (name "Pin_7" (effects (font (size 1.27 1.27))))
          (number "7" (effects (font (size 1.27 1.27))))
        )
        (pin passive line (at 7.62 2.54 180) (length 3.81)
          (name "Pin_8" (effects (font (size 1.27 1.27))))
          (number "8" (effects (font (size 1.27 1.27))))
        )
        (pin passive line (at 7.62 0 180) (length 3.81)
          (name "Pin_9" (effects (font (size 1.27 1.27))))
          (number "9" (effects (font (size 1.27 1.27))))
        )
      )
    )
    (symbol "Device:C" (pin_numbers hide) (pin_names (offset 0.254)) (in_bom yes) (on_board yes)
      (property "Reference" "C" (at 0.635 2.54 0)
        (effects (font (size 1.27 1.27)) (justify left))
      )
      (property "Value" "C" (at 0.635 -2.54 0)
        (effects (font (size 1.27 1.27)) (justify left))
      )
      (property "Footprint" "" (at 0.9652 -3.81 0)
        (effects (font (size 1.27 1.27)) hide)
      )
      (property "Datasheet" "~" (at 0 0 0)
        (effects (font (size 1.27 1.27)) hide)
      )
      (property "ki_keywords" "cap capacitor" (at 0 0 0)
        (effects (font (size 1.27 1.27)) hide)
      )
      (property "ki_description" "Unpolarized capacitor" (at 0 0 0)
        (effects (font (size 1.27 1.27)) hide)
      )
      (property "ki_fp_filters" "C_*" (at 0 0 0)
        (effects (font (size 1.27 1.27)) hide)
      )
      (symbol "C_0_1"
        (polyline
          (pts
            (xy -2.032 -0.762)
            (xy 2.032 -0.762)
          )
          (stroke (width 0.508) (type default))
          (fill (type none))
        )
        (polyline
          (pts
            (xy -2.032 0.762)
            (xy 2.032 0.762)
          )
          (stroke (width 0.508) (type default))
          (fill (type none))
        )
      )
      (symbol "C_1_1"
        (pin passive line (at 0 3.81 270) (length 2.794)
          (name "~" (effects (font (size 1.27 1.27))))
          (number "1" (effects (font (size 1.27 1.27))))
        )
        (pin passive line (at 0 -3.81 90) (length 2.794)
          (name "~" (effects (font (size 1.27 1.27))))
          (number "2" (effects (font (size 1.27 1.27))))
        )
      )
    )
    (symbol "Device:R" (pin_numbers hide) (pin_names (offset 0)) (in_bom yes) (on_board yes)
      (property "Reference" "R" (at 2.032 0 90)
        (effects (font (size 1.27 1.27)))
      )
      (property "Value" "R" (at 0 0 90)
        (effects (font (size 1.27 1.27)))
      )
      (property "Footprint" "" (at -1.778 0 90)
        (effects (font (size 1.27 1.27)) hide)
      )
      (property "Datasheet" "~" (at 0 0 0)
        (effects (font (size 1.27 1.27)) hide)
      )
      (property "ki_keywords" "R res resistor" (at 0 0 0)
        (effects (font (size 1.27 1.27)) hide)
      )
      (property "ki_description" "Resistor" (at 0 0 0)
        (effects (font (size 1.27 1.27)) hide)
      )
      (property "ki_fp_filters" "R_*" (at 0 0 0)
        (effects (font (size 1.27 1.27)) hide)
      )
      (symbol "R_0_1"
        (rectangle (start -1.016 -2.54) (end 1.016 2.54)
          (stroke (width 0.254) (type default))
          (fill (type none))
        )
      )
      (symbol "R_1_1"
        (pin passive line (at 0 3.81 270) (length 1.27)
          (name "~" (effects (font (size 1.27 1.27))))
          (number "1" (effects (font (size 1.27 1.27))))
        )
        (pin passive line (at 0 -3.81 90) (length 1.27)
          (name "~" (effects (font (size 1.27 1.27))))
          (number "2" (effects (font (size 1.27 1.27))))
        )
      )
    )
    (symbol "jrsa:CB3" (in_bom yes) (on_board yes)
      (property "Reference" "X1" (at 0 7.459 0)
        (effects (font (size 1.27 1.27)))
      )
      (property "Value" "CB3LV-5I-14M31818" (at 0 4.9221 0)
        (effects (font (size 1.27 1.27)))
      )
      (property "Footprint" "jrsa:CTS__CB3_OSC" (at 0 -5.08 0)
        (effects (font (size 1.27 1.27)) hide)
      )
      (property "Datasheet" "" (at 0 0 0)
        (effects (font (size 1.27 1.27)) hide)
      )
      (property "ki_description" "HCMOS/TTL Clock Oscillator" (at 0 0 0)
        (effects (font (size 1.27 1.27)) hide)
      )
      (symbol "CB3_0_1"
        (rectangle (start -5.08 3.81) (end 5.08 -1.27)
          (stroke (width 0.1524) (type default))
          (fill (type none))
        )
      )
      (symbol "CB3_1_1"
        (pin input line (at -7.62 0 0) (length 2.54)
          (name "EN" (effects (font (size 1.27 1.27))))
          (number "1" (effects (font (size 1.27 1.27))))
        )
        (pin power_in line (at 7.62 0 180) (length 2.54)
          (name "GND" (effects (font (size 1.27 1.27))))
          (number "2" (effects (font (size 1.27 1.27))))
        )
        (pin output line (at 7.62 2.54 180) (length 2.54)
          (name "OUT" (effects (font (size 1.27 1.27))))
          (number "3" (effects (font (size 1.27 1.27))))
        )
        (pin power_in line (at -7.62 2.54 0) (length 2.54)
          (name "VCC" (effects (font (size 1.27 1.27))))
          (number "4" (effects (font (size 1.27 1.27))))
        )
      )
    )
    (symbol "jrsa:RCJ-044" (pin_names (offset 1.016) hide) (in_bom yes) (on_board yes)
      (property "Reference" "J" (at -7.62 6.35 0)
        (effects (font (size 1.27 1.27)) (justify left bottom))
      )
      (property "Value" "RCJ-044" (at -7.62 -6.35 0)
        (effects (font (size 1.27 1.27)) (justify left bottom))
      )
      (property "Footprint" "CUI_RCJ-044" (at 0 0 0)
        (effects (font (size 1.27 1.27)) (justify left bottom) hide)
      )
      (property "Datasheet" "" (at 0 0 0)
        (effects (font (size 1.27 1.27)) (justify left bottom) hide)
      )
      (property "PARTREV" "1.02" (at 0 0 0)
        (effects (font (size 1.27 1.27)) (justify left bottom) hide)
      )
      (property "MANUFACTURER" "CUI Devices" (at 0 0 0)
        (effects (font (size 1.27 1.27)) (justify left bottom) hide)
      )
      (property "MAXIMUM_PACKAGE_HEIGHT" "11.6 mm" (at 0 0 0)
        (effects (font (size 1.27 1.27)) (justify left bottom) hide)
      )
      (property "STANDARD" "Manufacturer Recommendations" (at 0 0 0)
        (effects (font (size 1.27 1.27)) (justify left bottom) hide)
      )
      (property "ki_locked" "" (at 0 0 0)
        (effects (font (size 1.27 1.27)))
      )
      (symbol "RCJ-044_0_0"
        (rectangle (start -7.62 -5.08) (end 7.62 5.08)
          (stroke (width 0.254) (type default))
          (fill (type background))
        )
        (polyline
          (pts
            (xy -5.715 -0.254)
            (xy -5.08 -0.254)
          )
          (stroke (width 0.1524) (type default))
          (fill (type none))
        )
        (polyline
          (pts
            (xy -5.715 2.54)
            (xy -5.715 -0.254)
          )
          (stroke (width 0.1524) (type default))
          (fill (type none))
        )
        (polyline
          (pts
            (xy -5.08 -2.54)
            (xy -5.08 -0.254)
          )
          (stroke (width 0.1524) (type default))
          (fill (type none))
        )
        (polyline
          (pts
            (xy -5.08 -2.54)
            (xy 7.62 -2.54)
          )
          (stroke (width 0.1524) (type default))
          (fill (type none))
        )
        (polyline
          (pts
            (xy -5.08 -0.254)
            (xy -4.445 -0.254)
          )
          (stroke (width 0.1524) (type default))
          (fill (type none))
        )
        (polyline
          (pts
            (xy -4.445 -0.254)
            (xy -4.445 2.54)
          )
          (stroke (width 0.1524) (type default))
          (fill (type none))
        )
        (polyline
          (pts
            (xy -4.445 2.54)
            (xy -5.715 2.54)
          )
          (stroke (width 0.1524) (type default))
          (fill (type none))
        )
        (polyline
          (pts
            (xy -1.905 1.27)
            (xy -3.175 2.54)
          )
          (stroke (width 0.1524) (type default))
          (fill (type none))
        )
        (polyline
          (pts
            (xy -0.635 2.54)
            (xy -1.905 1.27)
          )
          (stroke (width 0.1524) (type default))
          (fill (type none))
        )
        (polyline
          (pts
            (xy -0.635 2.54)
            (xy 7.62 2.54)
          )
          (stroke (width 0.1524) (type default))
          (fill (type none))
        )
        (polyline
          (pts
            (xy 7.62 -5.08)
            (xy 7.62 5.08)
          )
          (stroke (width 0.254) (type default))
          (fill (type none))
        )
        (pin passive line (at 12.7 -2.54 180) (length 5.08)
          (name "~" (effects (font (size 1.016 1.016))))
          (number "1" (effects (font (size 1.016 1.016))))
        )
        (pin passive line (at 12.7 2.54 180) (length 5.08)
          (name "~" (effects (font (size 1.016 1.016))))
          (number "2" (effects (font (size 1.016 1.016))))
        )
      )
    )
    (symbol "power:+3.3V" (power) (pin_names (offset 0)) (in_bom yes) (on_board yes)
      (property "Reference" "#PWR" (at 0 -3.81 0)
        (effects (font (size 1.27 1.27)) hide)
      )
      (property "Value" "+3.3V" (at 0 3.556 0)
        (effects (font (size 1.27 1.27)))
      )
      (property "Footprint" "" (at 0 0 0)
        (effects (font (size 1.27 1.27)) hide)
      )
      (property "Datasheet" "" (at 0 0 0)
        (effects (font (size 1.27 1.27)) hide)
      )
      (property "ki_keywords" "power-flag" (at 0 0 0)
        (effects (font (size 1.27 1.27)) hide)
      )
      (property "ki_description" "Power symbol creates a global label with name \"+3.3V\"" (at 0 0 0)
        (effects (font (size 1.27 1.27)) hide)
      )
      (symbol "+3.3V_0_1"
        (polyline
          (pts
            (xy -0.762 1.27)
            (xy 0 2.54)
          )
          (stroke (width 0) (type default))
          (fill (type none))
        )
        (polyline
          (pts
            (xy 0 0)
            (xy 0 2.54)
          )
          (stroke (width 0) (type default))
          (fill (type none))
        )
        (polyline
          (pts
            (xy 0 2.54)
            (xy 0.762 1.27)
          )
          (stroke (width 0) (type default))
          (fill (type none))
        )
      )
      (symbol "+3.3V_1_1"
        (pin power_in line (at 0 0 90) (length 0) hide
          (name "+3.3V" (effects (font (size 1.27 1.27))))
          (number "1" (effects (font (size 1.27 1.27))))
        )
      )
    )
    (symbol "power:GND" (power) (pin_names (offset 0)) (in_bom yes) (on_board yes)
      (property "Reference" "#PWR" (at 0 -6.35 0)
        (effects (font (size 1.27 1.27)) hide)
      )
      (property "Value" "GND" (at 0 -3.81 0)
        (effects (font (size 1.27 1.27)))
      )
      (property "Footprint" "" (at 0 0 0)
        (effects (font (size 1.27 1.27)) hide)
      )
      (property "Datasheet" "" (at 0 0 0)
        (effects (font (size 1.27 1.27)) hide)
      )
      (property "ki_keywords" "power-flag" (at 0 0 0)
        (effects (font (size 1.27 1.27)) hide)
      )
      (property "ki_description" "Power symbol creates a global label with name \"GND\" , ground" (at 0 0 0)
        (effects (font (size 1.27 1.27)) hide)
      )
      (symbol "GND_0_1"
        (polyline
          (pts
            (xy 0 0)
            (xy 0 -1.27)
            (xy 1.27 -1.27)
            (xy 0 -2.54)
            (xy -1.27 -1.27)
            (xy 0 -1.27)
          )
          (stroke (width 0) (type default))
          (fill (type none))
        )
      )
      (symbol "GND_1_1"
        (pin power_in line (at 0 0 270) (length 0) hide
          (name "GND" (effects (font (size 1.27 1.27))))
          (number "1" (effects (font (size 1.27 1.27))))
        )
      )
    )
  )

  (junction (at 46.99 69.85) (diameter 0) (color 0 0 0 0)
    (uuid 3acea396-cb01-4e14-8291-79d86e424b95)
  )
  (junction (at 78.74 124.46) (diameter 0) (color 0 0 0 0)
    (uuid 66b99972-d611-4e7a-8342-ceac679f9526)
  )
  (junction (at 87.63 127) (diameter 0) (color 0 0 0 0)
    (uuid 6c4927a6-ad8d-42bb-83e1-ad21e7b2ec95)
  )
  (junction (at 168.402 105.41) (diameter 0) (color 0 0 0 0)
    (uuid ca6e6f2d-5509-4408-a64c-f818b820186d)
  )
  (junction (at 57.15 69.85) (diameter 0) (color 0 0 0 0)
    (uuid e2810597-0556-4035-b4dd-a86ba3ba526b)
  )

  (no_connect (at 60.96 119.38) (uuid 0de5211a-bd34-4736-9c3a-4fbf47ec25aa))
  (no_connect (at 60.96 124.46) (uuid 0de5211a-bd34-4736-9c3a-4fbf47ec25ab))
  (no_connect (at 60.96 129.54) (uuid 0de5211a-bd34-4736-9c3a-4fbf47ec25ac))
  (no_connect (at 73.66 119.38) (uuid 0de5211a-bd34-4736-9c3a-4fbf47ec25ad))

  (wire (pts (xy 137.16 95.25) (xy 151.13 95.25))
    (stroke (width 0) (type default))
    (uuid 03a9083a-472b-4574-ac18-ebdd45376810)
  )
  (wire (pts (xy 87.63 127) (xy 87.63 129.54))
    (stroke (width 0) (type default))
    (uuid 078203a8-846f-4591-87ae-861ba620fb01)
  )
  (wire (pts (xy 168.402 105.41) (xy 168.402 115.57))
    (stroke (width 0) (type default))
    (uuid 290a5e8d-a084-4a6e-9ffa-91ea1c977c7f)
  )
  (wire (pts (xy 77.47 72.39) (xy 74.93 72.39))
    (stroke (width 0) (type default))
    (uuid 2ebaa4ac-3a77-4c6b-9c35-05f1bd8b52b5)
  )
  (wire (pts (xy 78.74 121.92) (xy 78.74 124.46))
    (stroke (width 0) (type default))
    (uuid 3cdeb78d-0e25-4ef3-a054-5f45237b8394)
  )
  (wire (pts (xy 58.42 121.92) (xy 60.96 121.92))
    (stroke (width 0) (type default))
    (uuid 3f510b86-81f8-45c6-ad4f-7e85c5e26be1)
  )
  (wire (pts (xy 158.75 105.41) (xy 168.402 105.41))
    (stroke (width 0) (type default))
    (uuid 56b13c0a-0414-4cf0-962c-057caa121c40)
  )
  (wire (pts (xy 137.16 105.41) (xy 151.13 105.41))
    (stroke (width 0) (type default))
    (uuid 57ab6bae-4927-47c7-af87-eb7e25a36f05)
  )
  (wire (pts (xy 46.99 62.23) (xy 46.99 69.85))
    (stroke (width 0) (type default))
    (uuid 59116cbc-87c6-4007-8473-aebbfd057be6)
  )
  (wire (pts (xy 58.42 127) (xy 60.96 127))
    (stroke (width 0) (type default))
    (uuid 698314d3-3939-4d88-8204-12b133d46c1e)
  )
  (wire (pts (xy 168.402 115.57) (xy 158.75 115.57))
    (stroke (width 0) (type default))
    (uuid 6bb2d439-e464-41f9-bea8-db2c3ab39249)
  )
  (wire (pts (xy 46.99 69.85) (xy 46.99 72.39))
    (stroke (width 0) (type default))
    (uuid 6d26b928-eead-4034-80bf-90c8cd6905c6)
  )
  (wire (pts (xy 137.16 115.57) (xy 151.13 115.57))
    (stroke (width 0) (type default))
    (uuid 7c06f7f1-afc8-4a6e-9833-54758c3e5811)
  )
  (wire (pts (xy 73.66 124.46) (xy 78.74 124.46))
    (stroke (width 0) (type default))
    (uuid 867ed433-f847-4037-a97a-356b9d38da3e)
  )
  (wire (pts (xy 73.66 121.92) (xy 78.74 121.92))
    (stroke (width 0) (type default))
    (uuid 89156023-5a91-44da-ace2-385eb7cccd1f)
  )
  (wire (pts (xy 168.402 105.41) (xy 187.96 105.41))
    (stroke (width 0) (type default))
    (uuid 93db1379-458d-4578-90ce-56c931d5f997)
  )
  (wire (pts (xy 195.58 105.41) (xy 219.71 105.41))
    (stroke (width 0) (type default))
    (uuid 996a79a9-537a-4cf0-8adc-4508dda367b6)
  )
  (wire (pts (xy 168.402 95.25) (xy 168.402 105.41))
    (stroke (width 0) (type default))
    (uuid 9dc24d9e-8a7c-4cf8-85cd-be9f7a024ab1)
  )
  (wire (pts (xy 73.66 116.84) (xy 76.2 116.84))
    (stroke (width 0) (type default))
    (uuid a70636e2-696d-4fda-a528-39f1d05abdaa)
  )
  (wire (pts (xy 46.99 69.85) (xy 57.15 69.85))
    (stroke (width 0) (type default))
    (uuid a91d17da-5124-40a2-8efd-c423c23fc209)
  )
  (wire (pts (xy 209.55 100.33) (xy 219.71 100.33))
    (stroke (width 0) (type default))
    (uuid bd564af3-f565-42f3-a7f2-0b376d0b171a)
  )
  (wire (pts (xy 78.74 124.46) (xy 78.74 139.7))
    (stroke (width 0) (type default))
    (uuid c4758c04-55c4-4183-b240-91546ce0027c)
  )
  (wire (pts (xy 87.63 118.11) (xy 87.63 127))
    (stroke (width 0) (type default))
    (uuid c8e40548-2efa-4f2a-bc20-33539c224e24)
  )
  (wire (pts (xy 58.42 116.84) (xy 60.96 116.84))
    (stroke (width 0) (type default))
    (uuid cdd35880-07da-497a-8842-6019293c442d)
  )
  (wire (pts (xy 74.93 69.85) (xy 82.55 69.85))
    (stroke (width 0) (type default))
    (uuid da04dc19-9db8-4804-84c1-73ca8b565a31)
  )
  (wire (pts (xy 77.47 77.47) (xy 77.47 72.39))
    (stroke (width 0) (type default))
    (uuid da74af37-f65c-4f29-8655-04a7909043df)
  )
  (wire (pts (xy 158.75 95.25) (xy 168.402 95.25))
    (stroke (width 0) (type default))
    (uuid de8c8e10-ffc3-4a3e-ba88-e873b924dc2b)
  )
  (wire (pts (xy 46.99 80.01) (xy 46.99 85.09))
    (stroke (width 0) (type default))
    (uuid e17e659a-c8a7-4a9f-a82e-56c85242521d)
  )
  (wire (pts (xy 73.66 127) (xy 87.63 127))
    (stroke (width 0) (type default))
    (uuid ebc8507e-7a20-46ad-b61d-071683b3745a)
  )
  (wire (pts (xy 209.55 100.33) (xy 209.55 116.84))
    (stroke (width 0) (type default))
    (uuid ec3f4a15-8f36-4836-93c0-3eef23f39acb)
  )
  (wire (pts (xy 57.15 69.85) (xy 57.15 72.39))
    (stroke (width 0) (type default))
    (uuid f409edad-b981-4635-ad7c-ee042ff18bcc)
  )
  (wire (pts (xy 73.66 129.54) (xy 87.63 129.54))
    (stroke (width 0) (type default))
    (uuid f6764716-1389-4e10-8b8b-3e50a8d7a9cc)
  )
  (wire (pts (xy 57.15 72.39) (xy 59.69 72.39))
    (stroke (width 0) (type default))
    (uuid fe406c8e-3b35-485a-881a-a8e582ae78eb)
  )
  (wire (pts (xy 57.15 69.85) (xy 59.69 69.85))
    (stroke (width 0) (type default))
    (uuid ff81919f-f2bf-42c8-b144-a1d4771f0e54)
  )

  (text "clock oscillator" (at 53.34 54.61 0)
    (effects (font (size 2.54 2.54)) (justify left bottom))
    (uuid 0f7fd189-aac3-4b2f-8878-08afc4c0b6c9)
  )
  (text "video dac" (at 146.558 83.058 0)
    (effects (font (size 2.54 2.54)) (justify left bottom))
    (uuid 29b0cb2c-eedc-422f-bfaa-9bcb916f0aa6)
  )
  (text "composite out jack" (at 205.74 82.55 0)
    (effects (font (size 2.54 2.54)) (justify left bottom))
    (uuid 3eb681f3-aec3-4574-897b-05d78fabc773)
  )
  (text "NOTE: maybe make it a single-row pmod or attach test points to the second row or something"
    (at 26.67 107.95 0)
    (effects (font (size 1.27 1.27)) (justify left bottom))
    (uuid 5e151f85-66f9-4823-ad29-8015fbcbe1b6)
  )
  (text "PMOD header" (at 57.15 101.6 0)
    (effects (font (size 2.54 2.54)) (justify left bottom))
    (uuid b4df8891-ead9-49d2-b94c-04a47e2b8f61)
  )

  (label "CSC" (at 137.16 115.57 180) (fields_autoplaced)
    (effects (font (size 1.27 1.27)) (justify right bottom))
    (uuid 125b7a20-29ec-47a9-a96e-48f5703ef3d6)
  )
  (label "LUMA" (at 137.16 105.41 180) (fields_autoplaced)
    (effects (font (size 1.27 1.27)) (justify right bottom))
    (uuid 1433462c-c4a9-413a-8c3a-f6d1a74f181c)
  )
  (label "LUMA" (at 58.42 121.92 180) (fields_autoplaced)
    (effects (font (size 1.27 1.27)) (justify right bottom))
    (uuid 14597f7b-75f7-40b6-8ea0-5a1cffe66e97)
  )
  (label "CSC_CLK" (at 82.55 69.85 0) (fields_autoplaced)
    (effects (font (size 1.27 1.27)) (justify left bottom))
    (uuid 1e7c9511-1271-4b82-a55d-13b98a2ddf54)
  )
  (label "CSYNC" (at 137.16 95.25 180) (fields_autoplaced)
    (effects (font (size 1.27 1.27)) (justify right bottom))
    (uuid 591d43fd-a090-48ac-bdc8-117f4bf14d5b)
  )
  (label "CSC" (at 58.42 127 180) (fields_autoplaced)
    (effects (font (size 1.27 1.27)) (justify right bottom))
    (uuid 638a96cc-a9e4-46c1-8e9f-d3ae0a056fa9)
  )
  (label "CSC_CLK" (at 76.2 116.84 0) (fields_autoplaced)
    (effects (font (size 1.27 1.27)) (justify left bottom))
    (uuid 66d1ac2c-5c21-4710-8141-af8e54c62100)
  )
  (label "CSYNC" (at 58.42 116.84 180) (fields_autoplaced)
    (effects (font (size 1.27 1.27)) (justify right bottom))
    (uuid 706819e9-23bb-4653-9d4c-5ee4fd8c516e)
  )

  (symbol (lib_id "power:+3.3V") (at 46.99 62.23 0) (unit 1)
    (in_bom yes) (on_board yes) (dnp no) (fields_autoplaced)
    (uuid 096a7adb-2334-43fa-9212-c1e3f4a670e5)
    (property "Reference" "#PWR02" (at 46.99 66.04 0)
      (effects (font (size 1.27 1.27)) hide)
    )
    (property "Value" "+3.3V" (at 46.99 58.6542 0)
      (effects (font (size 1.27 1.27)))
    )
    (property "Footprint" "" (at 46.99 62.23 0)
      (effects (font (size 1.27 1.27)) hide)
    )
    (property "Datasheet" "" (at 46.99 62.23 0)
      (effects (font (size 1.27 1.27)) hide)
    )
    (pin "1" (uuid d2607bdb-d1c3-45e6-bf94-722150a2b433))
    (instances
      (project "pmod_pcb"
        (path "/e63e39d7-6ac0-4ffd-8aa3-1841a4541b55"
          (reference "#PWR02") (unit 1)
        )
      )
    )
  )

  (symbol (lib_id "Device:R") (at 154.94 95.25 90) (mirror x) (unit 1)
    (in_bom yes) (on_board yes) (dnp no)
    (uuid 14225539-20f5-4764-a475-3f28ced26909)
    (property "Reference" "R1" (at 154.94 90.5342 90)
      (effects (font (size 1.27 1.27)))
    )
    (property "Value" "1k" (at 154.94 93.0711 90)
      (effects (font (size 1.27 1.27)))
    )
    (property "Footprint" "Resistor_SMD:R_0603_1608Metric" (at 154.94 93.472 90)
      (effects (font (size 1.27 1.27)) hide)
    )
    (property "Datasheet" "~" (at 154.94 95.25 0)
      (effects (font (size 1.27 1.27)) hide)
    )
    (pin "1" (uuid d39fbfa4-d84b-40d1-af7f-62b435af975b))
    (pin "2" (uuid 2a1cb976-513f-457d-bb97-0144ddb5d057))
    (instances
      (project "pmod_pcb"
        (path "/e63e39d7-6ac0-4ffd-8aa3-1841a4541b55"
          (reference "R1") (unit 1)
        )
      )
    )
  )

  (symbol (lib_id "Device:R") (at 154.94 105.41 90) (mirror x) (unit 1)
    (in_bom yes) (on_board yes) (dnp no) (fields_autoplaced)
    (uuid 1b3af6d1-5d36-467d-ae23-9f33f9d46131)
    (property "Reference" "R2" (at 154.94 100.6942 90)
      (effects (font (size 1.27 1.27)))
    )
    (property "Value" "100R" (at 154.94 103.2311 90)
      (effects (font (size 1.27 1.27)))
    )
    (property "Footprint" "Resistor_SMD:R_0603_1608Metric" (at 154.94 103.632 90)
      (effects (font (size 1.27 1.27)) hide)
    )
    (property "Datasheet" "~" (at 154.94 105.41 0)
      (effects (font (size 1.27 1.27)) hide)
    )
    (pin "1" (uuid 3881c2ba-3a6a-4286-bafd-320368eb9c36))
    (pin "2" (uuid 2bd86898-67e0-4351-bd2f-e6e3008101c2))
    (instances
      (project "pmod_pcb"
        (path "/e63e39d7-6ac0-4ffd-8aa3-1841a4541b55"
          (reference "R2") (unit 1)
        )
      )
    )
  )

  (symbol (lib_id "jrsa:CB3") (at 67.31 72.39 0) (unit 1)
    (in_bom yes) (on_board yes) (dnp no) (fields_autoplaced)
    (uuid 1cbd3725-ea31-44b5-9d8c-3d456b04edbe)
    (property "Reference" "X1" (at 67.31 64.931 0)
      (effects (font (size 1.27 1.27)))
    )
    (property "Value" "CB3LV-5I-14M3180" (at 67.31 67.4679 0)
      (effects (font (size 1.27 1.27)))
    )
    (property "Footprint" "jrsa:CTS__CB3_OSC" (at 67.31 77.47 0)
      (effects (font (size 1.27 1.27)) hide)
    )
    (property "Datasheet" "" (at 67.31 72.39 0)
      (effects (font (size 1.27 1.27)) hide)
    )
    (pin "1" (uuid 85efc589-77ec-4e52-afb5-fa5928b4a136))
    (pin "2" (uuid 1f444866-9e9e-49cb-bf87-a41bde2a20ff))
    (pin "3" (uuid a8ef4bff-6f3d-4cea-bc21-47e5d64dd781))
    (pin "4" (uuid 77e7b9a4-e6f5-4975-ac2a-dfef0525699b))
    (instances
      (project "pmod_pcb"
        (path "/e63e39d7-6ac0-4ffd-8aa3-1841a4541b55"
          (reference "X1") (unit 1)
        )
      )
    )
  )

  (symbol (lib_id "Connector_Generic:Conn_02x06_Top_Bottom") (at 66.04 121.92 0) (unit 1)
    (in_bom yes) (on_board yes) (dnp no) (fields_autoplaced)
    (uuid 229aaa99-f8b1-4070-9cff-4b8f5bb8d10e)
    (property "Reference" "J1" (at 67.31 111.8702 0)
      (effects (font (size 1.27 1.27)))
    )
    (property "Value" "PMOD_HEADER" (at 67.31 114.4071 0)
      (effects (font (size 1.27 1.27)))
    )
    (property "Footprint" "Connector_PinSocket_2.54mm:PinSocket_2x06_P2.54mm_Horizontal" (at 66.04 121.92 0)
      (effects (font (size 1.27 1.27)) hide)
    )
    (property "Datasheet" "~" (at 66.04 121.92 0)
      (effects (font (size 1.27 1.27)) hide)
    )
    (pin "1" (uuid 92a062a3-838f-42e4-b6d5-227af390a92b))
    (pin "10" (uuid 74e0e2ab-f1ee-46dc-9ac0-33b71a89be51))
    (pin "11" (uuid 9730a3f7-8473-47d5-be87-0a2124146ff0))
    (pin "12" (uuid 3e0f5090-e59f-4a92-9e4d-c1b2eb191d14))
    (pin "2" (uuid 668fc5f8-2a95-40c2-963e-53f26bc513f0))
    (pin "3" (uuid 95097194-3669-441c-a8b4-349b8b6cbee6))
    (pin "4" (uuid 97d948c9-7dbb-4dcd-b38a-a66267b34468))
    (pin "5" (uuid 3ef48e6c-c27f-4c5b-84b0-9a9910facb95))
    (pin "6" (uuid b6c89559-0d20-499d-99e2-a54575c41682))
    (pin "7" (uuid bdede1fb-bdd9-45a1-a0e7-f6c26527660a))
    (pin "8" (uuid 5472c91f-694b-402a-8f93-765bd872c777))
    (pin "9" (uuid a7007d75-8cae-46d1-a84b-9deebdb174c8))
    (instances
      (project "pmod_pcb"
        (path "/e63e39d7-6ac0-4ffd-8aa3-1841a4541b55"
          (reference "J1") (unit 1)
        )
      )
    )
  )

  (symbol (lib_id "Device:R") (at 191.77 105.41 90) (mirror x) (unit 1)
    (in_bom yes) (on_board yes) (dnp no) (fields_autoplaced)
    (uuid 3b9e1956-84e5-49ad-ae0b-cd3c714dd198)
    (property "Reference" "R4" (at 191.77 100.6942 90)
      (effects (font (size 1.27 1.27)))
    )
    (property "Value" "75R" (at 191.77 103.2311 90)
      (effects (font (size 1.27 1.27)))
    )
    (property "Footprint" "Resistor_SMD:R_0603_1608Metric" (at 191.77 103.632 90)
      (effects (font (size 1.27 1.27)) hide)
    )
    (property "Datasheet" "~" (at 191.77 105.41 0)
      (effects (font (size 1.27 1.27)) hide)
    )
    (pin "1" (uuid 4adcfefd-cc32-43cf-a3d8-d92b711020ac))
    (pin "2" (uuid f2bdf1aa-a067-419f-a50e-de192960569d))
    (instances
      (project "pmod_pcb"
        (path "/e63e39d7-6ac0-4ffd-8aa3-1841a4541b55"
          (reference "R4") (unit 1)
        )
      )
    )
  )

  (symbol (lib_id "power:GND") (at 209.55 116.84 0) (unit 1)
    (in_bom yes) (on_board yes) (dnp no) (fields_autoplaced)
    (uuid 6f81445c-baa1-4777-848d-308ea511b711)
    (property "Reference" "#PWR05" (at 209.55 123.19 0)
      (effects (font (size 1.27 1.27)) hide)
    )
    (property "Value" "GND" (at 209.55 121.2834 0)
      (effects (font (size 1.27 1.27)))
    )
    (property "Footprint" "" (at 209.55 116.84 0)
      (effects (font (size 1.27 1.27)) hide)
    )
    (property "Datasheet" "" (at 209.55 116.84 0)
      (effects (font (size 1.27 1.27)) hide)
    )
    (pin "1" (uuid e60a4961-ab39-4925-8272-d56a680d9a85))
    (instances
      (project "pmod_pcb"
        (path "/e63e39d7-6ac0-4ffd-8aa3-1841a4541b55"
          (reference "#PWR05") (unit 1)
        )
      )
    )
  )

  (symbol (lib_id "power:+3.3V") (at 87.63 118.11 0) (unit 1)
    (in_bom yes) (on_board yes) (dnp no) (fields_autoplaced)
    (uuid 7cc396d5-18b3-4661-9017-15cbdebb7ec3)
    (property "Reference" "#PWR01" (at 87.63 121.92 0)
      (effects (font (size 1.27 1.27)) hide)
    )
    (property "Value" "+3.3V" (at 87.63 114.5342 0)
      (effects (font (size 1.27 1.27)))
    )
    (property "Footprint" "" (at 87.63 118.11 0)
      (effects (font (size 1.27 1.27)) hide)
    )
    (property "Datasheet" "" (at 87.63 118.11 0)
      (effects (font (size 1.27 1.27)) hide)
    )
    (pin "1" (uuid c0cd3183-3004-48f9-bc96-f725de82c07c))
    (instances
      (project "pmod_pcb"
        (path "/e63e39d7-6ac0-4ffd-8aa3-1841a4541b55"
          (reference "#PWR01") (unit 1)
        )
      )
    )
  )

  (symbol (lib_id "power:GND") (at 78.74 139.7 0) (unit 1)
    (in_bom yes) (on_board yes) (dnp no) (fields_autoplaced)
    (uuid 9a364a34-8b1e-41d3-b297-bf1f66c1136d)
    (property "Reference" "#PWR04" (at 78.74 146.05 0)
      (effects (font (size 1.27 1.27)) hide)
    )
    (property "Value" "GND" (at 78.74 144.1434 0)
      (effects (font (size 1.27 1.27)))
    )
    (property "Footprint" "" (at 78.74 139.7 0)
      (effects (font (size 1.27 1.27)) hide)
    )
    (property "Datasheet" "" (at 78.74 139.7 0)
      (effects (font (size 1.27 1.27)) hide)
    )
    (pin "1" (uuid a034283d-3014-4bae-8576-76ddf382abbb))
    (instances
      (project "pmod_pcb"
        (path "/e63e39d7-6ac0-4ffd-8aa3-1841a4541b55"
          (reference "#PWR04") (unit 1)
        )
      )
    )
  )

  (symbol (lib_id "power:GND") (at 46.99 85.09 0) (unit 1)
    (in_bom yes) (on_board yes) (dnp no) (fields_autoplaced)
    (uuid 9cf5ca32-ced4-49f5-9983-9802e77bd429)
    (property "Reference" "#PWR0101" (at 46.99 91.44 0)
      (effects (font (size 1.27 1.27)) hide)
    )
    (property "Value" "GND" (at 46.99 89.5334 0)
      (effects (font (size 1.27 1.27)))
    )
    (property "Footprint" "" (at 46.99 85.09 0)
      (effects (font (size 1.27 1.27)) hide)
    )
    (property "Datasheet" "" (at 46.99 85.09 0)
      (effects (font (size 1.27 1.27)) hide)
    )
    (pin "1" (uuid a06f1e81-af5f-46c8-b3b3-f400c61987ce))
    (instances
      (project "pmod_pcb"
        (path "/e63e39d7-6ac0-4ffd-8aa3-1841a4541b55"
          (reference "#PWR0101") (unit 1)
        )
      )
    )
  )

  (symbol (lib_id "power:GND") (at 77.47 77.47 0) (unit 1)
    (in_bom yes) (on_board yes) (dnp no) (fields_autoplaced)
    (uuid b919341f-b383-4626-b988-94926aa4b327)
    (property "Reference" "#PWR03" (at 77.47 83.82 0)
      (effects (font (size 1.27 1.27)) hide)
    )
    (property "Value" "GND" (at 77.47 81.9134 0)
      (effects (font (size 1.27 1.27)))
    )
    (property "Footprint" "" (at 77.47 77.47 0)
      (effects (font (size 1.27 1.27)) hide)
    )
    (property "Datasheet" "" (at 77.47 77.47 0)
      (effects (font (size 1.27 1.27)) hide)
    )
    (pin "1" (uuid 6c852053-f192-40dc-80ba-635bfa6b5a0d))
    (instances
      (project "pmod_pcb"
        (path "/e63e39d7-6ac0-4ffd-8aa3-1841a4541b55"
          (reference "#PWR03") (unit 1)
        )
      )
    )
  )

  (symbol (lib_id "Device:R") (at 154.94 115.57 90) (mirror x) (unit 1)
    (in_bom yes) (on_board yes) (dnp no) (fields_autoplaced)
    (uuid c9e0c037-d5d2-4a08-a2f6-35dc35d889d7)
    (property "Reference" "R3" (at 154.94 110.8542 90)
      (effects (font (size 1.27 1.27)))
    )
    (property "Value" "470R" (at 154.94 113.3911 90)
      (effects (font (size 1.27 1.27)))
    )
    (property "Footprint" "Resistor_SMD:R_0603_1608Metric" (at 154.94 113.792 90)
      (effects (font (size 1.27 1.27)) hide)
    )
    (property "Datasheet" "~" (at 154.94 115.57 0)
      (effects (font (size 1.27 1.27)) hide)
    )
    (pin "1" (uuid 3a757555-4570-4a0a-886a-602644bcea53))
    (pin "2" (uuid e3bb2b35-b254-42b2-8643-001d0e4857b2))
    (instances
      (project "pmod_pcb"
        (path "/e63e39d7-6ac0-4ffd-8aa3-1841a4541b55"
          (reference "R3") (unit 1)
        )
      )
    )
  )

  (symbol (lib_id "Device:C") (at 46.99 76.2 0) (unit 1)
    (in_bom yes) (on_board yes) (dnp no) (fields_autoplaced)
    (uuid dc89275a-c297-43d9-b664-373af8e4f64b)
    (property "Reference" "C1" (at 49.911 75.3653 0)
      (effects (font (size 1.27 1.27)) (justify left))
    )
    (property "Value" "0.01μF" (at 49.911 77.9022 0)
      (effects (font (size 1.27 1.27)) (justify left))
    )
    (property "Footprint" "Capacitor_SMD:C_0603_1608Metric" (at 47.9552 80.01 0)
      (effects (font (size 1.27 1.27)) hide)
    )
    (property "Datasheet" "~" (at 46.99 76.2 0)
      (effects (font (size 1.27 1.27)) hide)
    )
    (pin "1" (uuid 1a1ea214-bcd5-4193-8b71-81f60daadf1c))
    (pin "2" (uuid 2b319ad4-d303-4a36-b627-a232dbc8b458))
    (instances
      (project "pmod_pcb"
        (path "/e63e39d7-6ac0-4ffd-8aa3-1841a4541b55"
          (reference "C1") (unit 1)
        )
      )
    )
  )

  (symbol (lib_id "jrsa:RCJ-044") (at 232.41 102.87 180) (unit 1)
    (in_bom yes) (on_board yes) (dnp no) (fields_autoplaced)
    (uuid ebcac1dc-a633-4890-85a8-00a0623987a5)
    (property "Reference" "J2" (at 240.792 102.0353 0)
      (effects (font (size 1.27 1.27)) (justify right))
    )
    (property "Value" "RCJ-044" (at 240.792 104.5722 0)
      (effects (font (size 1.27 1.27)) (justify right))
    )
    (property "Footprint" "jrsa:CUI_RCJ-044" (at 232.41 102.87 0)
      (effects (font (size 1.27 1.27)) (justify left bottom) hide)
    )
    (property "Datasheet" "" (at 232.41 102.87 0)
      (effects (font (size 1.27 1.27)) (justify left bottom) hide)
    )
    (property "PARTREV" "1.02" (at 232.41 102.87 0)
      (effects (font (size 1.27 1.27)) (justify left bottom) hide)
    )
    (property "MANUFACTURER" "CUI Devices" (at 232.41 102.87 0)
      (effects (font (size 1.27 1.27)) (justify left bottom) hide)
    )
    (property "MAXIMUM_PACKAGE_HEIGHT" "11.6 mm" (at 232.41 102.87 0)
      (effects (font (size 1.27 1.27)) (justify left bottom) hide)
    )
    (property "STANDARD" "Manufacturer Recommendations" (at 232.41 102.87 0)
      (effects (font (size 1.27 1.27)) (justify left bottom) hide)
    )
    (pin "1" (uuid 4d7c83d7-9155-49e6-b2d1-df5c2ae268a7))
    (pin "2" (uuid 891f7e43-0f1b-4229-8ae7-5db3babed258))
    (instances
      (project "pmod_pcb"
        (path "/e63e39d7-6ac0-4ffd-8aa3-1841a4541b55"
          (reference "J2") (unit 1)
        )
      )
    )
  )

  (sheet_instances
    (path "/" (page "1"))
  )
)
